dump.vcd
$date
	Tue Sep 30 13:17:27 2025
$end
$version
	Icarus Verilog
$end
$timescale
	1ps
$end
$scope module vending_machine $end
$var wire 1 ! clk $end
$var wire 4 " money_in [3:0] $end
$var wire 3 # product_code [2:0] $end
$var wire 1 $ reset $end
$var reg 4 % change [3:0] $end
$var reg 1 & dispense $end
$var reg 1 ' out_of_stock $end
$var reg 4 ( product_price [3:0] $end
$upscope $end
$enddefinitions $end
#0
$dumpvars
b1111 (
0'
0&
b0 %
1$
b0 #
b0 "
1!
$end
#5000
0!
#10000
1&
1!
b1111 "
0$
#15000
b101 (
b1 #
b1010 "
0!
#20000
1'
b1010 %
0&
1!
#25000
b1010 (
b10 #
b1000 "
0!
#30000
0'
b1000 %
1!
#35000
b101 (
b11 #
b101 "
0!
#40000
b0 %
1&
1!
#45000
b1111 (
b111 #
b1111 "
0!
#50000
1'
b1111 %
0&
1!
#55000
b101 (
b11 #
b101 "
0!
#60000
b101 %
1!
